james: ba080fc7ffb98529b2b1acf41f9987e65857cd4a
linda: c25ff5f82d775a2bf2cb0489a89294b7b8c300a1
sofia: 02aa629c8b16cd17a44f3a0efec2feed43937642
santiago: 512d9aba34dba06c0fea7cbe191234e99cb2a477
isabella: 67967a23091c7681d93f7c07ea78f0e87eaaff6c
diego: 1adcd7e88cfd78a1d06980b910d474be67ea1145
robert: f7342a5c49465156e187215d2bfb4d9e26b1670f
mary: 3e0ca40a9d1004130c684ab6ad66cd9938028009
patricia: 3c986ce0ce5a4734c5c03fe55a563e603adbfaf3
daniela: bd57d129eb02cfa1d3263ac102b1bdfc740694bf
